Read cells from ODS files • tidyods
…
Usage

You can read in cells via the read_ods_cells() function. There is a helper function ods_sheets() that can list the sheets in an ODS file.

The package includes an example ODS with two sheets: penguins and types.

library(tidyods)

example_file <- system.file("extdata", "basic_example.ods", package = "tidyods")

ods_sheets(example_file)
#> [1] "penguins" "types"

read_ods_cells(example_file, sheet = "penguins", quiet = TRUE)
#> # A tibble: 28 × 25
#>    sheet      row   col cell_type is_empty value_type cell_content   base_value 
#>    <chr>    <dbl> <dbl> <chr>     <lgl>    <chr>      <chr>          <chr>      
#>  1 penguins     1     1 cell      FALSE    string     species        species    
#>  2 penguins     1     2 cell      FALSE    string     female         female     
#>  3 penguins     1     3 cell      FALSE    string     bill_length_mm bill_lengt…
#>  4 penguins     1     4 cell      FALSE    string     body_mass_g    body_mass_g
#>  5 penguins     2     1 cell      FALSE    string     Adelie         Adelie     
#>  6 penguins     2     2 cell      FALSE    boolean    FALSE          false      
#>  7 penguins     2     3 cell      FALSE    float      40.4           40.3904109…
#>  8 penguins     2     4 cell      FALSE    float      4043           4043.49315…
#>  9 penguins     3     1 cell      FALSE    string     Adelie         Adelie     
#> 10 penguins     3     2 cell      FALSE    boolean    TRUE           true       
#> # ℹ 18 more rows
#> # ℹ 17 more variables: numeric_value <dbl>, currency_symbol <chr>,
#> #   boolean_value <lgl>, date_value <chr>, time_value <chr>, has_formula <lgl>,
#> #   formula <chr>, has_error <lgl>, error_type <dbl>, has_annotation <lgl>,
#> #   annotation <chr>, is_merged <lgl>, merge_colspan <dbl>,
#> #   merge_rowspan <dbl>, merge_shape <chr>, cell_style <chr>, row_style <chr>
…
