Extracting cell information • tidyods
…
Date

The ODS specification does not differentiate between a date
(e.g. 15/06/2022) and a date-time (e.g. 15/06/2023 13:47). The
cell_content column will show the date as formatted for
spreadsheet users, e.g. Wednesday, 15 June 2022 or
15/06/22. The date_value (and thus
base_value) is stored in ISO 8601 format
(0000-00-00T00:00:00).

types_cells |> 
  dplyr::filter(value_type == "date") |> 
  dplyr::select(cell_content, base_value, date_value)
#> # A tibble: 28 × 3
#>    cell_content                    base_value          date_value         
#>    <chr>                           <chr>               <chr>              
#>  1 15/06/22                        2022-06-15          2022-06-15         
#>  2 15/06/2022 13:24:56             2022-06-15T13:24:56 2022-06-15T13:24:56
#>  3 06/15/22                        2022-06-15          2022-06-15         
#>  4 15/06/22 13:24                  2022-06-15T13:24:56 2022-06-15T13:24:56
#>  5 Wed 15 Jun 22                   2022-06-15          2022-06-15         
#>  6 15-Jun-22 13:24                 2022-06-15T13:24:56 2022-06-15T13:24:56
#>  7 Wednesday 15 June 2022          2022-06-15          2022-06-15         
#>  8 Wednesday 15 June 2022 01:24 PM 2022-06-15T13:24:56 2022-06-15T13:24:56
#>  9 15-Jun-22                       2022-06-15          2022-06-15         
#> 10 15/06 13.24                     2022-06-15T13:24:56 2022-06-15T13:24:56
#> # ℹ 18 more rows
…
Note: ODS files produced by Microsoft Excel output
all dates as date-times with the time component of the date set to
00:00:00, this is a further reason for
read_ods_cells() not automatically coercing
date_value to an R data type.

Float

Numeric values, with the exception of currency and percentage types,
are defined as a float value type.

types_cells |> 
  dplyr::filter(value_type == "float") |> 
  dplyr::select(cell_content, base_value, numeric_value)
#> # A tibble: 37 × 3
#>    cell_content base_value     numeric_value
#>    <chr>        <chr>                  <dbl>
#>  1 12035        12034.56789     12034.56789 
#>  2 0.5467       0.5467              0.5467  
#>  3 6579.3       6579.298265463   6579.298265
#>  4 12034.57     12034.56789     12034.56789 
#>  5 6579.3       6579.298265463   6579.298265
#>  6 12034.5679   12034.56789     12034.56789 
#>  7 6579.3       6579.298265463   6579.298265
#>  8 12034.568    12034.56789     12034.56789 
#>  9 6579.3       6579.298265463   6579.298265
#> 10 12034.56789  12034.56789     12034.56789 
#> # ℹ 27 more rows
…
